#define fixed_width 7
#define fixed_height 11
static char fixed_bits[][14] = {
  //0
  { 0x00, 0x00, 0x00, 0x00, 0x00, 0x00, 0x00, 0x00, 0x00,
    0x00, 0x00 },
  //1
  { 0x00, 0x54, 0x00, 0x44, 0x00, 0x44, 0x00, 0x44, 0x00, 
     0x54, 0x00 },
  //2
  { 0x00, 0x54, 0x00, 0x44, 0x00, 0x44, 0x00, 0x44, 0x00, 
     0x54, 0x00 },
  //3
  { 0x00, 0x54, 0x00, 0x44, 0x00, 0x44, 0x00, 0x44, 0x00, 
     0x54, 0x00 },
  //4
  { 0x00, 0x54, 0x00, 0x44, 0x00, 0x44, 0x00, 0x44, 0x00, 
     0x54, 0x00 },
  //5
  { 0x00, 0x54, 0x00, 0x44, 0x00, 0x44, 0x00, 0x44, 0x00, 
     0x54, 0x00 },
  //6
  { 0x00, 0x54, 0x00, 0x44, 0x00, 0x44, 0x00, 0x44, 0x00, 
     0x54, 0x00 },
  //7
  { 0x00, 0x54, 0x00, 0x44, 0x00, 0x44, 0x00, 0x44, 0x00, 
     0x54, 0x00 },
  //8
  { 0x00, 0x54, 0x00, 0x44, 0x00, 0x44, 0x00, 0x44, 0x00, 
     0x54, 0x00 },
  //9
  { 0x00, 0x00, 0x00, 0x00, 0x00, 0x00, 0x00, 0x00, 0x00,
    0x00, 0x00 },
  //10
  { 0x00, 0x00, 0x00, 0x00, 0x00, 0x00, 0x00, 0x00, 0x00,
    0x00, 0x00 },
  //11
  { 0x00, 0x00, 0x00, 0x00, 0x00, 0x00, 0x00, 0x00, 0x00,
    0x00, 0x00 },
  //12
  { 0x00, 0x00, 0x00, 0x00, 0x00, 0x00, 0x00, 0x00, 0x00,
    0x00, 0x00 },
  //13
  { 0x00, 0x00, 0x00, 0x00, 0x00, 0x00, 0x00, 0x00, 0x00,
    0x00, 0x00 },
  //14
  { 0x00, 0x54, 0x00, 0x44, 0x00, 0x44, 0x00, 0x44, 0x00, 
     0x54, 0x00 },
  //15
  { 0x00, 0x54, 0x00, 0x44, 0x00, 0x44, 0x00, 0x44, 0x00, 
     0x54, 0x00 },
  //16
  { 0x00, 0x54, 0x00, 0x44, 0x00, 0x44, 0x00, 0x44, 0x00, 
     0x54, 0x00 },
  //17
  { 0x00, 0x54, 0x00, 0x44, 0x00, 0x44, 0x00, 0x44, 0x00, 
     0x54, 0x00 },
  //18
  { 0x00, 0x54, 0x00, 0x44, 0x00, 0x44, 0x00, 0x44, 0x00, 
     0x54, 0x00 },
  //19
  { 0x00, 0x54, 0x00, 0x44, 0x00, 0x44, 0x00, 0x44, 0x00, 
     0x54, 0x00 },
  //20
  { 0x00, 0x54, 0x00, 0x44, 0x00, 0x44, 0x00, 0x44, 0x00, 
     0x54, 0x00 },
  //21
  { 0x00, 0x54, 0x00, 0x44, 0x00, 0x44, 0x00, 0x44, 0x00, 
     0x54, 0x00 },
  //22
  { 0x00, 0x54, 0x00, 0x44, 0x00, 0x44, 0x00, 0x44, 0x00, 
     0x54, 0x00 },
  //23
  { 0x00, 0x54, 0x00, 0x44, 0x00, 0x44, 0x00, 0x44, 0x00, 
     0x54, 0x00 },
  //24
  { 0x00, 0x54, 0x00, 0x44, 0x00, 0x44, 0x00, 0x44, 0x00, 
     0x54, 0x00 },
  //25
  { 0x00, 0x54, 0x00, 0x44, 0x00, 0x44, 0x00, 0x44, 0x00, 
     0x54, 0x00 },
  //26
  { 0x00, 0x54, 0x00, 0x44, 0x00, 0x44, 0x00, 0x44, 0x00, 
     0x54, 0x00 },
  //27
  { 0x00, 0x54, 0x00, 0x44, 0x00, 0x44, 0x00, 0x44, 0x00, 
     0x54, 0x00 },
  //28
  { 0x00, 0x54, 0x00, 0x44, 0x00, 0x44, 0x00, 0x44, 0x00, 
     0x54, 0x00 },
  //29
  { 0x00, 0x54, 0x00, 0x44, 0x00, 0x44, 0x00, 0x44, 0x00, 
     0x54, 0x00 },
  //30
  { 0x00, 0x54, 0x00, 0x44, 0x00, 0x44, 0x00, 0x44, 0x00, 
     0x54, 0x00 },
  //31
  { 0x00, 0x54, 0x00, 0x44, 0x00, 0x44, 0x00, 0x44, 0x00, 
     0x54, 0x00 },
  //32
  { 0x00, 0x00, 0x00, 0x00, 0x00, 0x00, 0x00, 0x00, 0x00,
    0x00, 0x00 },
  //33
  { 0x00, 0x10, 0x10, 0x10, 0x10, 0x10, 0x10, 0x10, 0x00, 
     0x10, 0x00 },
  //34
  { 0x00, 0x28, 0x28, 0x28, 0x00, 0x00, 0x00, 0x00, 0x00, 
     0x00, 0x00 },
  //35
  { 0x00, 0x00, 0x28, 0x28, 0x7C, 0x28, 0x7C, 0x28, 0x28, 
     0x00, 0x00 },
  //36
  { 0x00, 0x10, 0x3C, 0x50, 0x50, 0x38, 0x14, 0x14, 0x78, 
     0x10, 0x00 },
  //37
  { 0x00, 0x24, 0x54, 0x28, 0x08, 0x10, 0x20, 0x28, 0x54, 
     0x48, 0x00 },
  //38
  { 0x00, 0x00, 0x20, 0x50, 0x50, 0x20, 0x50, 0x4C, 0x48, 
     0x34, 0x00 },
  //39
  { 0x00, 0x10, 0x10, 0x10, 0x00, 0x00, 0x00, 0x00, 0x00, 
     0x00, 0x00 },
  //40
  { 0x08, 0x10, 0x10, 0x20, 0x20, 0x20, 0x20, 0x20, 0x10, 
     0x10, 0x08 },
  //41
  { 0x20, 0x10, 0x10, 0x08, 0x08, 0x08, 0x08, 0x08, 0x10, 
     0x10, 0x20 },
  //42
  { 0x00, 0x10, 0x54, 0x38, 0x54, 0x10, 0x00, 0x00, 0x00, 
     0x00, 0x00 },
  //43
  { 0x00, 0x00, 0x00, 0x10, 0x10, 0x7C, 0x10, 0x10, 0x00, 
     0x00, 0x00 },
  //44
  { 0x00, 0x00, 0x00, 0x00, 0x00, 0x00, 0x00, 0x00, 0x18, 
     0x10, 0x20 },
  //45
  { 0x00, 0x00, 0x00, 0x00, 0x00, 0x7C, 0x00, 0x00, 0x00, 
     0x00, 0x00 },
  //46
  { 0x00, 0x00, 0x00, 0x00, 0x00, 0x00, 0x00, 0x00, 0x10, 
     0x38, 0x10 },
  //47
  { 0x00, 0x04, 0x04, 0x08, 0x08, 0x10, 0x20, 0x20, 0x40, 
     0x40, 0x00 },
  //48
  { 0x00, 0x10, 0x28, 0x44, 0x44, 0x44, 0x44, 0x44, 0x28, 
     0x10, 0x00 },
  //49
  { 0x00, 0x10, 0x30, 0x50, 0x10, 0x10, 0x10, 0x10, 0x10, 
     0x7C, 0x00 },
  //50
  { 0x00, 0x38, 0x44, 0x44, 0x04, 0x08, 0x10, 0x20, 0x40, 
     0x7C, 0x00 },
  //51
  { 0x00, 0x7C, 0x04, 0x08, 0x10, 0x38, 0x04, 0x04, 0x44, 
     0x38, 0x00 },
  //52
  { 0x00, 0x08, 0x08, 0x18, 0x28, 0x28, 0x48, 0x7C, 0x08, 
     0x08, 0x00 },
  //53
  { 0x00, 0x7C, 0x40, 0x40, 0x58, 0x64, 0x04, 0x04, 0x44, 
     0x38, 0x00 },
  //54
  { 0x00, 0x38, 0x44, 0x40, 0x40, 0x78, 0x44, 0x44, 0x44, 
     0x38, 0x00 },
  //55
  { 0x00, 0x7C, 0x04, 0x08, 0x08, 0x10, 0x10, 0x20, 0x20, 
     0x20, 0x00 },
  //56
  { 0x00, 0x38, 0x44, 0x44, 0x44, 0x38, 0x44, 0x44, 0x44, 
     0x38, 0x00 },
  //57
  { 0x00, 0x38, 0x44, 0x44, 0x44, 0x3C, 0x04, 0x04, 0x44, 
     0x38, 0x00 },
  //58
  { 0x00, 0x00, 0x00, 0x10, 0x38, 0x10, 0x00, 0x00, 0x10, 
     0x38, 0x10 },
  //59
  { 0x00, 0x00, 0x00, 0x10, 0x38, 0x10, 0x00, 0x00, 0x18, 
     0x10, 0x20 },
  //60
  { 0x00, 0x04, 0x08, 0x10, 0x20, 0x40, 0x20, 0x10, 0x08, 
     0x04, 0x00 },
  //61
  { 0x00, 0x00, 0x00, 0x00, 0x7C, 0x00, 0x00, 0x7C, 0x00, 
     0x00, 0x00 },
  //62
  { 0x00, 0x40, 0x20, 0x10, 0x08, 0x04, 0x08, 0x10, 0x20, 
     0x40, 0x00 },
  //63
  { 0x00, 0x38, 0x44, 0x44, 0x04, 0x08, 0x10, 0x10, 0x00, 
     0x10, 0x00 },
  //64
  { 0x00, 0x38, 0x44, 0x44, 0x4C, 0x54, 0x54, 0x58, 0x40, 
     0x3C, 0x00 },
  //65
  { 0x00, 0x10, 0x28, 0x44, 0x44, 0x44, 0x7C, 0x44, 0x44, 
     0x44, 0x00 },
  //66
  { 0x00, 0x78, 0x24, 0x24, 0x24, 0x38, 0x24, 0x24, 0x24, 
     0x78, 0x00 },
  //67
  { 0x00, 0x38, 0x44, 0x40, 0x40, 0x40, 0x40, 0x40, 0x44, 
     0x38, 0x00 },
  //68
  { 0x00, 0x78, 0x24, 0x24, 0x24, 0x24, 0x24, 0x24, 0x24, 
     0x78, 0x00 },
  //69
  { 0x00, 0x7C, 0x40, 0x40, 0x40, 0x78, 0x40, 0x40, 0x40, 
     0x7C, 0x00 },
  //70
  { 0x00, 0x7C, 0x40, 0x40, 0x40, 0x78, 0x40, 0x40, 0x40, 
     0x40, 0x00 },
  //71
  { 0x00, 0x38, 0x44, 0x40, 0x40, 0x40, 0x4C, 0x44, 0x44, 
     0x38, 0x00 },
  //72
  { 0x00, 0x44, 0x44, 0x44, 0x44, 0x7C, 0x44, 0x44, 0x44, 
     0x44, 0x00 },
  //73
  { 0x00, 0x38, 0x10, 0x10, 0x10, 0x10, 0x10, 0x10, 0x10, 
     0x38, 0x00 },
  //74
  { 0x00, 0x1C, 0x08, 0x08, 0x08, 0x08, 0x08, 0x08, 0x48, 
     0x30, 0x00 },
  //75
  { 0x00, 0x44, 0x44, 0x48, 0x50, 0x60, 0x50, 0x48, 0x44, 
     0x44, 0x00 },
  //76
  { 0x00, 0x40, 0x40, 0x40, 0x40, 0x40, 0x40, 0x40, 0x40, 
     0x7C, 0x00 },
  //77
  { 0x00, 0x44, 0x44, 0x6C, 0x54, 0x54, 0x44, 0x44, 0x44, 
     0x44, 0x00 },
  //78
  { 0x00, 0x44, 0x64, 0x64, 0x54, 0x54, 0x4C, 0x4C, 0x44, 
     0x44, 0x00 },
  //79
  { 0x00, 0x38, 0x44, 0x44, 0x44, 0x44, 0x44, 0x44, 0x44, 
     0x38, 0x00 },
  //80
  { 0x00, 0x78, 0x44, 0x44, 0x44, 0x78, 0x40, 0x40, 0x40, 
     0x40, 0x00 },
  //81
  { 0x00, 0x38, 0x44, 0x44, 0x44, 0x44, 0x44, 0x44, 0x54, 
     0x38, 0x04 },
  //82
  { 0x00, 0x78, 0x44, 0x44, 0x44, 0x78, 0x50, 0x48, 0x44, 
     0x44, 0x00 },
  //83
  { 0x00, 0x38, 0x44, 0x40, 0x40, 0x38, 0x04, 0x04, 0x44, 
     0x38, 0x00 },
  //84
  { 0x00, 0x7C, 0x10, 0x10, 0x10, 0x10, 0x10, 0x10, 0x10, 
     0x10, 0x00 },
  //85
  { 0x00, 0x44, 0x44, 0x44, 0x44, 0x44, 0x44, 0x44, 0x44, 
     0x38, 0x00 },
  //86
  { 0x00, 0x44, 0x44, 0x44, 0x44, 0x28, 0x28, 0x28, 0x10, 
     0x10, 0x00 },
  //87
  { 0x00, 0x44, 0x44, 0x44, 0x44, 0x54, 0x54, 0x54, 0x54, 
     0x28, 0x00 },
  //88
  { 0x00, 0x44, 0x44, 0x28, 0x28, 0x10, 0x28, 0x28, 0x44, 
     0x44, 0x00 },
  //89
  { 0x00, 0x44, 0x44, 0x28, 0x28, 0x10, 0x10, 0x10, 0x10, 
     0x10, 0x00 },
  //90
  { 0x00, 0x7C, 0x04, 0x08, 0x08, 0x10, 0x20, 0x20, 0x40, 
     0x7C, 0x00 },
  //91
  { 0x38, 0x20, 0x20, 0x20, 0x20, 0x20, 0x20, 0x20, 0x20, 
     0x20, 0x38 },
  //92
  { 0x00, 0x00, 0x00, 0x00, 0x00, 0x00, 0x00, 0x00, 0x00,
    0x00, 0x00 },
  //93
  { 0x38, 0x08, 0x08, 0x08, 0x08, 0x08, 0x08, 0x08, 0x08, 
     0x08, 0x38 },
  //94
  { 0x00, 0x10, 0x28, 0x44, 0x00, 0x00, 0x00, 0x00, 0x00, 
     0x00, 0x00 },
  //95
  { 0x00, 0x00, 0x00, 0x00, 0x00, 0x00, 0x00, 0x00, 0x00, 
     0x00, 0x7C },
  //96
  { 0x10, 0x08, 0x00, 0x00, 0x00, 0x00, 0x00, 0x00, 0x00, 
     0x00, 0x00 },
  //97
  { 0x00, 0x00, 0x00, 0x00, 0x38, 0x04, 0x3C, 0x44, 0x4C, 
     0x34, 0x00 },
  //98
  { 0x00, 0x40, 0x40, 0x40, 0x78, 0x44, 0x44, 0x44, 0x44, 
     0x78, 0x00 },
  //99
  { 0x00, 0x00, 0x00, 0x00, 0x38, 0x44, 0x40, 0x40, 0x44, 
     0x38, 0x00 },
  //100
  { 0x00, 0x04, 0x04, 0x04, 0x3C, 0x44, 0x44, 0x44, 0x44, 
     0x3C, 0x00 },
  //101
  { 0x00, 0x00, 0x00, 0x00, 0x38, 0x44, 0x7C, 0x40, 0x44, 
     0x38, 0x00 },
  //102
  { 0x00, 0x18, 0x24, 0x20, 0x20, 0x78, 0x20, 0x20, 0x20, 
     0x20, 0x00 },
  //103
  { 0x00, 0x00, 0x00, 0x00, 0x38, 0x44, 0x44, 0x44, 0x3C, 
     0x04, 0x44 },
  //104
  { 0x00, 0x40, 0x40, 0x40, 0x58, 0x64, 0x44, 0x44, 0x44, 
     0x44, 0x00 },
  //105
  { 0x00, 0x00, 0x10, 0x00, 0x30, 0x10, 0x10, 0x10, 0x10, 
     0x38, 0x00 },
  //106
  { 0x00, 0x00, 0x08, 0x00, 0x18, 0x08, 0x08, 0x08, 0x08, 
     0x48, 0x48 },
  //107
  { 0x00, 0x40, 0x40, 0x40, 0x48, 0x50, 0x60, 0x50, 0x48, 
     0x44, 0x00 },
  //108
  { 0x00, 0x30, 0x10, 0x10, 0x10, 0x10, 0x10, 0x10, 0x10, 
     0x38, 0x00 },
  //109
  { 0x00, 0x00, 0x00, 0x00, 0x68, 0x54, 0x54, 0x54, 0x54, 
     0x44, 0x00 },
  //110
  { 0x00, 0x00, 0x00, 0x00, 0x58, 0x64, 0x44, 0x44, 0x44, 
     0x44, 0x00 },
  //111
  { 0x00, 0x00, 0x00, 0x00, 0x38, 0x44, 0x44, 0x44, 0x44, 
     0x38, 0x00 },
  //112
  { 0x00, 0x00, 0x00, 0x00, 0x78, 0x44, 0x44, 0x44, 0x78, 
     0x40, 0x40 },
  //113
  { 0x00, 0x00, 0x00, 0x00, 0x3C, 0x44, 0x44, 0x44, 0x3C, 
     0x04, 0x04 },
  //114
  { 0x00, 0x00, 0x00, 0x00, 0x58, 0x64, 0x40, 0x40, 0x40, 
     0x40, 0x00 },
  //115
  { 0x00, 0x00, 0x00, 0x00, 0x38, 0x44, 0x30, 0x08, 0x44, 
     0x38, 0x00 },
  //116
  { 0x00, 0x00, 0x20, 0x20, 0x78, 0x20, 0x20, 0x20, 0x24, 
     0x18, 0x00 },
  //117
  { 0x00, 0x00, 0x00, 0x00, 0x44, 0x44, 0x44, 0x44, 0x4C, 
     0x34, 0x00 },
  //118
  { 0x00, 0x00, 0x00, 0x00, 0x44, 0x44, 0x44, 0x28, 0x28, 
     0x10, 0x00 },
  //119
  { 0x00, 0x00, 0x00, 0x00, 0x44, 0x44, 0x54, 0x54, 0x54, 
     0x28, 0x00 },
  //120
  { 0x00, 0x00, 0x00, 0x00, 0x44, 0x28, 0x10, 0x10, 0x28, 
     0x44, 0x00 },
  //121
  { 0x00, 0x00, 0x00, 0x00, 0x44, 0x44, 0x44, 0x4C, 0x34, 
     0x04, 0x44 },
  //122
  { 0x00, 0x00, 0x00, 0x00, 0x7C, 0x08, 0x10, 0x20, 0x40, 
     0x7C, 0x00 },
  //123
  { 0x0C, 0x10, 0x10, 0x10, 0x10, 0x60, 0x10, 0x10, 0x10, 
     0x10, 0x0C },
  //124
  { 0x00, 0x10, 0x10, 0x10, 0x10, 0x10, 0x10, 0x10, 0x10, 
     0x10, 0x00 },
  //125
  { 0x60, 0x10, 0x10, 0x10, 0x10, 0x0C, 0x10, 0x10, 0x10, 
     0x10, 0x60 },
  //126
  { 0x00, 0x24, 0x54, 0x48, 0x00, 0x00, 0x00, 0x00, 0x00, 
     0x00, 0x00 },
  //127
  { 0x00, 0x54, 0x00, 0x44, 0x00, 0x44, 0x00, 0x44, 0x00, 
     0x54, 0x00 }
};
